^D:\GITHUB\SOURCECODE\LEARN\C\TEST2\LEARN\LEARN\WHAT.C
D:\GITHUB\SOURCECODE\LEARN\C\TEST2\LEARN\LEARN\DEBUG\VC141.PDB
D:\GITHUB\SOURCECODE\LEARN\C\TEST2\LEARN\LEARN\DEBUG\VC141.IDB
D:\GITHUB\SOURCECODE\LEARN\C\TEST2\LEARN\LEARN\DEBUG\WHAT.OBJ
